r4ds Chapter 5 - Transforming Tidy Data
…
Importing Data with readr (helpful for our next session)

Tidying Imported Data with tidyr (also helpful for our next session)

1.3 Example Data: Flights Departing New York City in 2013

Our data set is a table data frame (or tibble) of measurements on all flights departing the Greater New York City area in 2013. It has 336,776 unique flights and 19 measurements on those flights. We will use this data set to explore a few of the more commonly-used dplyr functions.

install.packages("nycflights13")

library(nycflights13)
flights

## # A tibble: 336,776 x 19
##     year month   day dep_time sched_dep_time dep_delay arr_time
##    <int> <int> <int>    <int>          <int>     <dbl>    <int>
##  1  2013     1     1      517            515         2      830
##  2  2013     1     1      533            529         4      850
##  3  2013     1     1      542            540         2      923
##  4  2013     1     1      544            545        -1     1004
##  5  2013     1     1      554            600        -6      812
##  6  2013     1     1      554            558        -4      740
##  7  2013     1     1      555            600        -5      913
##  8  2013     1     1      557            600        -3      709
##  9  2013     1     1      557            600        -3      838
## 10  2013     1     1      558            600        -2      753
## # ... with 336,766 more rows, and 12 more variables: sched_arr_time <int>,
## #   arr_delay <dbl>, carrier <chr>, flight <int>, tailnum <chr>,
## #   origin <chr>, dest <chr>, air_time <dbl>, distance <dbl>, hour <dbl>,
## #   minute <dbl>, time_hour <dttm>
…
mutate(): create new columns (often as functions of your existing columns)

group_by(): group rows by chosen columns

summarise(): collapse multiple rows into one (often paired with group_by() for group summaries)

All of these functions have very similar syntax: function(data_df, ...). The ellipsis will take in the additional conditions or arguments for the function, and column names are passed unquoted. Additionally, these functions do not create new data objects. If you want to keep the transformed data table youve created, you must store it as an object.

2 Subset Rows with filter()

The filter function takes in the data frame and a logical argument. Rows that return TRUE for that logical argument are returned as a subset of the original data frame. For example, we would like to inspect only flights that happened on 1 January, 2013.

filter(flights, month == 1, day == 1)

## # A tibble: 842 x 19
##     year month   day dep_time sched_dep_time dep_delay arr_time
##    <int> <int> <int>    <int>          <int>     <dbl>    <int>
##  1  2013     1     1      517            515         2      830
##  2  2013     1     1      533            529         4      850
##  3  2013     1     1      542            540         2      923
##  4  2013     1     1      544            545        -1     1004
##  5  2013     1     1      554            600        -6      812
##  6  2013     1     1      554            558        -4      740
##  7  2013     1     1      555            600        -5      913
##  8  2013     1     1      557            600        -3      709
##  9  2013     1     1      557            600        -3      838
## 10  2013     1     1      558            600        -2      753
## # ... with 832 more rows, and 12 more variables: sched_arr_time <int>,
## #   arr_delay <dbl>, carrier <chr>, flight <int>, tailnum <chr>,
## #   origin <chr>, dest <chr>, air_time <dbl>, distance <dbl>, hour <dbl>,
## #   minute <dbl>, time_hour <dttm>
…
## [1] TRUE

A %in% c(1, 2, 3)

## [1] TRUE

2.2 Examples

Find all the flights on Christmas Eve. Well use the pipe operator from last session, but the code is exactly the same as the code for finding all the New Years Day flights.

flights %>% filter(month == 12, day == 24)

## # A tibble: 761 x 19
##     year month   day dep_time sched_dep_time dep_delay arr_time
##    <int> <int> <int>    <int>          <int>     <dbl>    <int>
##  1  2013    12    24        9           2359        10      444
##  2  2013    12    24      458            500        -2      652
##  3  2013    12    24      513            515        -2      813
##  4  2013    12    24      543            540         3      844
##  5  2013    12    24      546            550        -4     1032
##  6  2013    12    24      555            600        -5      851
##  7  2013    12    24      556            600        -4      845
##  8  2013    12    24      557            600        -3      908
##  9  2013    12    24      558            600        -2      827
## 10  2013    12    24      558            600        -2      729
## # ... with 751 more rows, and 12 more variables: sched_arr_time <int>,
## #   arr_delay <dbl>, carrier <chr>, flight <int>, tailnum <chr>,
## #   origin <chr>, dest <chr>, air_time <dbl>, distance <dbl>, hour <dbl>,
## #   minute <dbl>, time_hour <dttm>

As a review, the pipe turns x %>% f(y) into f(x, y). Pipes allow us to read code from left-to-right and top-to-bottom, rather than inside out with a giant nest of parentheses.

Find all flights during the summer months (June, July, and August).

filter(flights, month %in% c(6, 7, 8))

## # A tibble: 86,995 x 19
##     year month   day dep_time sched_dep_time dep_delay arr_time
##    <int> <int> <int>    <int>          <int>     <dbl>    <int>
##  1  2013     6     1        2           2359         3      341
##  2  2013     6     1      451            500        -9      624
##  3  2013     6     1      506            515        -9      715
##  4  2013     6     1      534            545       -11      800
##  5  2013     6     1      538            545        -7      925
##  6  2013     6     1      539            540        -1      832
##  7  2013     6     1      546            600       -14      850
##  8  2013     6     1      551            600        -9      828
##  9  2013     6     1      552            600        -8      647
## 10  2013     6     1      553            600        -7      700
## # ... with 86,985 more rows, and 12 more variables: sched_arr_time <int>,
## #   arr_delay <dbl>, carrier <chr>, flight <int>, tailnum <chr>,
## #   origin <chr>, dest <chr>, air_time <dbl>, distance <dbl>, hour <dbl>,
## #   minute <dbl>, time_hour <dttm>

Find all flights that did not depart from Newark Liberty.

filter(flights, origin != "EWR")

## # A tibble: 215,941 x 19
##     year month   day dep_time sched_dep_time dep_delay arr_time
##    <int> <int> <int>    <int>          <int>     <dbl>    <int>
##  1  2013     1     1      533            529         4      850
##  2  2013     1     1      542            540         2      923
##  3  2013     1     1      544            545        -1     1004
##  4  2013     1     1      554            600        -6      812
##  5  2013     1     1      557            600        -3      709
##  6  2013     1     1      557            600        -3      838
##  7  2013     1     1      558            600        -2      753
##  8  2013     1     1      558            600        -2      849
##  9  2013     1     1      558            600        -2      853
## 10  2013     1     1      558            600        -2      924
## # ... with 215,931 more rows, and 12 more variables: sched_arr_time <int>,
## #   arr_delay <dbl>, carrier <chr>, flight <int>, tailnum <chr>,
## #   origin <chr>, dest <chr>, air_time <dbl>, distance <dbl>, hour <dbl>,
## #   minute <dbl>, time_hour <dttm>

Find all JetBlue (B6) or Southwest (WN) flights.

filter(flights, carrier == "B6" | carrier == "WN")

## # A tibble: 66,910 x 19
##     year month   day dep_time sched_dep_time dep_delay arr_time
##    <int> <int> <int>    <int>          <int>     <dbl>    <int>
##  1  2013     1     1      544            545        -1     1004
##  2  2013     1     1      555            600        -5      913
##  3  2013     1     1      557            600        -3      838
##  4  2013     1     1      558            600        -2      849
##  5  2013     1     1      558            600        -2      853
##  6  2013     1     1      559            559         0      702
##  7  2013     1     1      600            600         0      851
##  8  2013     1     1      601            600         1      844
##  9  2013     1     1      613            610         3      925
## 10  2013     1     1      615            615         0     1039
## # ... with 66,900 more rows, and 12 more variables: sched_arr_time <int>,
## #   arr_delay <dbl>, carrier <chr>, flight <int>, tailnum <chr>,
## #   origin <chr>, dest <chr>, air_time <dbl>, distance <dbl>, hour <dbl>,
## #   minute <dbl>, time_hour <dttm>

Find any flights out of LaGuardia that actually left on time.

filter(flights, origin == "LGA" & dep_delay <= 0)

## # A tibble: 67,819 x 19
##     year month   day dep_time sched_dep_time dep_delay arr_time
##    <int> <int> <int>    <int>          <int>     <dbl>    <int>
##  1  2013     1     1      554            600        -6      812
##  2  2013     1     1      557            600        -3      709
##  3  2013     1     1      558            600        -2      753
##  4  2013     1     1      559            600        -1      941
##  5  2013     1     1      600            600         0      851
##  6  2013     1     1      600            600         0      837
##  7  2013     1     1      602            610        -8      812
##  8  2013     1     1      602            605        -3      821
##  9  2013     1     1      623            627        -4      933
## 10  2013     1     1      624            630        -6      840
## # ... with 67,809 more rows, and 12 more variables: sched_arr_time <int>,
## #   arr_delay <dbl>, carrier <chr>, flight <int>, tailnum <chr>,
## #   origin <chr>, dest <chr>, air_time <dbl>, distance <dbl>, hour <dbl>,
## #   minute <dbl>, time_hour <dttm>

3 Sort Rows with arrange()

The arrange() function takes in a data frame and a set of columns to sort on. We can sort the flights by in increasing order by the day of the year: we sort by month, then by day within month.

arrange(flights, year, month, day)

## # A tibble: 336,776 x 19
##     year month   day dep_time sched_dep_time dep_delay arr_time
##    <int> <int> <int>    <int>          <int>     <dbl>    <int>
##  1  2013     1     1      517            515         2      830
##  2  2013     1     1      533            529         4      850
##  3  2013     1     1      542            540         2      923
##  4  2013     1     1      544            545        -1     1004
##  5  2013     1     1      554            600        -6      812
##  6  2013     1     1      554            558        -4      740
##  7  2013     1     1      555            600        -5      913
##  8  2013     1     1      557            600        -3      709
##  9  2013     1     1      557            600        -3      838
## 10  2013     1     1      558            600        -2      753
## # ... with 336,766 more rows, and 12 more variables: sched_arr_time <int>,
## #   arr_delay <dbl>, carrier <chr>, flight <int>, tailnum <chr>,
## #   origin <chr>, dest <chr>, air_time <dbl>, distance <dbl>, hour <dbl>,
## #   minute <dbl>, time_hour <dttm>

Also, we can sort the flights by departure delay time.

arrange(flights, desc(dep_delay))

## # A tibble: 336,776 x 19
##     year month   day dep_time sched_dep_time dep_delay arr_time
##    <int> <int> <int>    <int>          <int>     <dbl>    <int>
##  1  2013     1     9      641            900      1301     1242
##  2  2013     6    15     1432           1935      1137     1607
##  3  2013     1    10     1121           1635      1126     1239
##  4  2013     9    20     1139           1845      1014     1457
##  5  2013     7    22      845           1600      1005     1044
##  6  2013     4    10     1100           1900       960     1342
##  7  2013     3    17     2321            810       911      135
##  8  2013     6    27      959           1900       899     1236
##  9  2013     7    22     2257            759       898      121
## 10  2013    12     5      756           1700       896     1058
## # ... with 336,766 more rows, and 12 more variables: sched_arr_time <int>,
## #   arr_delay <dbl>, carrier <chr>, flight <int>, tailnum <chr>,
## #   origin <chr>, dest <chr>, air_time <dbl>, distance <dbl>, hour <dbl>,
## #   minute <dbl>, time_hour <dttm>

Further, we can combine this with the filter() commmand to sort the American Airlines flights out of JFK on the day before Thanksgiving by their duration. By the way, see how easy it is to chain rather complicated commands together? You might begin to imagine that we are only scratching the surface of what we can do with dplyr

flights %>%
  filter(carrier == "AA") %>% 
  filter(origin == "JFK") %>% 
  filter(month == 11) %>% 
  filter(day == 27) %>%
  arrange(desc(air_time))

## # A tibble: 37 x 19
##     year month   day dep_time sched_dep_time dep_delay arr_time
##    <int> <int> <int>    <int>          <int>     <dbl>    <int>
##  1  2013    11    27     1529           1530        -1     1903
##  2  2013    11    27      805            800         5     1129
##  3  2013    11    27     1740           1745        -5     2103
##  4  2013    11    27     1022           1030        -8     1319
##  5  2013    11    27      724            730        -6     1058
##  6  2013    11    27     1340           1345        -5     1648
##  7  2013    11    27     1543           1545        -2     1845
##  8  2013    11    27     1849           1850        -1     2209
##  9  2013    11    27     1900           1900         0     2229
## 10  2013    11    27     1141            900       161     1429
## # ... with 27 more rows, and 12 more variables: sched_arr_time <int>,
## #   arr_delay <dbl>, carrier <chr>, flight <int>, tailnum <chr>,
## #   origin <chr>, dest <chr>, air_time <dbl>, distance <dbl>, hour <dbl>,
## #   minute <dbl>, time_hour <dttm>

As an aside, look how clean this code looks because of our pipes! Imagine trying to write this as a set of nested functions. Not pretty.

4 Select and Move Columns with select()

While filter() and arrange() help us select and sort individual observations (rows), the select() function helps us select, rename, or reorder the measurements (columns) of a data frame.

4.1 Select Columns that Meet Our Criteria

We first select three columns specifically by their names.

select(flights, year, month, day)

## # A tibble: 336,776 x 3
##     year month   day
##    <int> <int> <int>
##  1  2013     1     1
##  2  2013     1     1
##  3  2013     1     1
##  4  2013     1     1
##  5  2013     1     1
##  6  2013     1     1
##  7  2013     1     1
##  8  2013     1     1
##  9  2013     1     1
## 10  2013     1     1
## # ... with 336,766 more rows

Notice that we only have the three columns we explicitly requested by name and no more. The select() function will drop whatever we dont ask for by default, but we can change this behaviour by adding the additional everything() argument (well come back to this in the reordering columns section).

We could have also specified a range of column names to achieve the same effect.

select(flights, year:day)

## # A tibble: 336,776 x 3
##     year month   day
##    <int> <int> <int>
##  1  2013     1     1
##  2  2013     1     1
##  3  2013     1     1
##  4  2013     1     1
##  5  2013     1     1
##  6  2013     1     1
##  7  2013     1     1
##  8  2013     1     1
##  9  2013     1     1
## 10  2013     1     1
## # ... with 336,766 more rows

If you have used regular expressions or performed string manipulation before, you can also use the following modifiers to the select() function:

Find all the columns with names starting with dep_.

select(flights, starts_with("dep_"))

## # A tibble: 336,776 x 2
##    dep_time dep_delay
##       <int>     <dbl>
##  1      517         2
##  2      533         4
##  3      542         2
##  4      544        -1
##  5      554        -6
##  6      554        -4
##  7      555        -5
##  8      557        -3
##  9      557        -3
## 10      558        -2
## # ... with 336,766 more rows

Find all the columns with names ending with ay.

select(flights, ends_with("ay"))

## # A tibble: 336,776 x 3
##      day dep_delay arr_delay
##    <int>     <dbl>     <dbl>
##  1     1         2        11
##  2     1         4        20
##  3     1         2        33
##  4     1        -1       -18
##  5     1        -6       -25
##  6     1        -4        12
##  7     1        -5        19
##  8     1        -3       -14
##  9     1        -3        -8
## 10     1        -2         8
## # ... with 336,766 more rows

Find all the columns with names that contain time.

select(flights, contains("time"))

## # A tibble: 336,776 x 6
##    dep_time sched_dep_time arr_time sched_arr_time air_time
##       <int>          <int>    <int>          <int>    <dbl>
##  1      517            515      830            819      227
##  2      533            529      850            830      227
##  3      542            540      923            850      160
##  4      544            545     1004           1022      183
##  5      554            600      812            837      116
##  6      554            558      740            728      150
##  7      555            600      913            854      158
##  8      557            600      709            723       53
##  9      557            600      838            846      140
## 10      558            600      753            745      138
## # ... with 336,766 more rows, and 1 more variable: time_hour <dttm>

Find all the columns with names that start with exactly three lower case letters followed by _.

select(flights, matches("^[a-z]{3}\\_"))

## # A tibble: 336,776 x 5
##    dep_time dep_delay arr_time arr_delay air_time
##       <int>     <dbl>    <int>     <dbl>    <dbl>
##  1      517         2      830        11      227
##  2      533         4      850        20      227
##  3      542         2      923        33      160
##  4      544        -1     1004       -18      183
##  5      554        -6      812       -25      116
##  6      554        -4      740        12      150
##  7      555        -5      913        19      158
##  8      557        -3      709       -14       53
##  9      557        -3      838        -8      140
## 10      558        -2      753         8      138
## # ... with 336,766 more rows
…
