r4ds Chapter 3 - Data Visualisation
…
## v tibble  2.0.1     v purrr   0.3.0
## v tidyr   0.8.2     v dplyr   0.7.8
## v readr   1.3.1     v stringr 1.4.0
## v tibble  2.0.1     v forcats 0.3.0

## -- Conflicts ------------------------------------------------------------ tidyverse_conflicts() --
## x dplyr::filter() masks stats::filter()
## x dplyr::lag()    masks stats::lag()

We will begin by answering a simple question: is fuel efficiency associated with engine size? If so, how? (We will assume that our data is already nice and clean. If your data is ugly, stick around for the next two classes!) Lets load and look at our Miles per Gallon data set (which is in the ggplot2:: package). While I dont need to save the data set (because it is stored in the ggplot2:: package), Im going to take the opportunity to show you the assignment operator in R: <-.

mpg <- ggplot2::mpg
mpg

## # A tibble: 234 x 11
##    manufacturer model displ  year   cyl trans drv     cty   hwy fl    class
##    <chr>        <chr> <dbl> <int> <int> <chr> <chr> <int> <int> <chr> <chr>
##  1 audi         a4      1.8  1999     4 auto~ f        18    29 p     comp~
##  2 audi         a4      1.8  1999     4 manu~ f        21    29 p     comp~
##  3 audi         a4      2    2008     4 manu~ f        20    31 p     comp~
##  4 audi         a4      2    2008     4 auto~ f        21    30 p     comp~
##  5 audi         a4      2.8  1999     6 auto~ f        16    26 p     comp~
##  6 audi         a4      2.8  1999     6 manu~ f        18    26 p     comp~
##  7 audi         a4      3.1  2008     6 auto~ f        18    27 p     comp~
##  8 audi         a4 q~   1.8  1999     4 manu~ 4        18    26 p     comp~
##  9 audi         a4 q~   1.8  1999     4 auto~ 4        16    25 p     comp~
## 10 audi         a4 q~   2    2008     4 manu~ 4        20    28 p     comp~
## # ... with 224 more rows
…
